20

118
1
-1
102
9
3
-3
2
1
-4
-1
36
38
16
-4

90
24
7
-2
18

18
94
4
3
-2
47
5
24
2
-4
4
18
7
-5
-6
19
1
-8
6
-7

32
39
30
12
-3
3
2
5
1
7
-3
4
4
-2
19
13

113
1
2
-1
23
26
9
43
6
-6
-1
2
5
13
1
-2

5
84

2
48
58
-2
8
26
12
5
-3
24
-5
1
13
1
-2
2

92
3
23
1
-1
19
67
-2
24
1

3
47
15
19
8
23

84
38
-1
62
19
-2
8
9
1
-4

86
29
-1
74
-1
65
20
5
-1
29
34
-2
16
4
2
2

77
9

70
19
30
1
-1
11
27
-3
-3
25
-2
25
-1
1
3

121
1
-1
48
34
36

12
58
23
8

8

77
32
2
-1
57
2
-1
37
6
-1
12
3
10
14

11
82
15
3
-2
14
53
8
3

34
84
-1
11
8

95
17
2
2
-2
-2
1
-1
