56 -8 912
40 -40 48 -24 -16 784
-32 -40 -80 -88 720
-16 968
48 -40 -224 656
-16 -8 -16 176 -88 648
-8 8 -8 -16 -48 176 -16 -32 616
16 -56 -72 -32 784
64 -16 -32 -88 760
16 -8 -24 -40 16 -104 736
16 -8 -64 72 -136 656
-80 16 -24 -56 784
-8 64 -24 -152 712
-56 8 -8 -8 -24 848
184 -40 752
-48 -8 88 -80 736
-8 32 -16 24 -32 -184 48 -32 -16 528
48 -8 -64 -80 760
-16 16 -48 -24 -64 -80 696
-24 32 -24 888
16 -24 936
72 -112 -184 600
8 -16 -80 -24 832
-48 -104 88 -8 712
24 -32 16 -40 -88 -16 -48 -40 -32 -16 -232 320
