25

121
-1
1
2

4
43
5
-2
5
4
-1

5
90
-2
-1

4
2
25
12
2
-4
-4
-2
6
-3

1
1
4
-1
2
-1
5

4
5
-2
5
4

1
3
25
12
-3
1

24
1
2
-3

4
1
-2
4
4
5
2
-3

6
23
-1
1
1
-3
3
4
2
1
-1
4
2
-2

5
1
1
1
-3

3
4
-1
5
90
3
5
1
-2
6
-3

1
1
4
-1
2
-2
-1
5
2
2
-3
-2
1

4
2
-1
3
-1
-1

7
-1
2
1
-2
2

1
1
4
-1
2
-1
5
3
12
-1
40
1
2
-1
1
-2

1
3
25
12
40
2
-4
-4
2
-3
5
4
3
3
2
23
-2
-5
1

4
3
27
5
-4
5
-3

3
7
6
5
-4
10
3
10
1
-3
-1
-2

4
3
-2
3

2
12
-2
-1
4
32
-1

3
4
5
8
6
4
-6
4
5

7
4
1
2
1
-4
1

5
3
1
-3
5
-1
-2
-1

41
4
24
4
-2
3
-1
-2
-1
