28

5
37
2
2
2
-3

53

47
5

3
8
4
2
-2
-1

7
7
7

124

123

123
-1
124

62
-1
31
74

2
2
2
2
22
2

12
8
4
6
8
-3
-3
-3

25
25
25
25
-1
-1

65
-1
4

100
5
-1
25
-1
4
1
3
-1
-1

15
9
31
-2
-2
54

16
3
1
4
6
3
6
8
23
-4
-3
-5
2
4
6
8
-4

7
1
2
14
3
5
75
-7
-4
-2

18
5
3
7
9
-3
-3

19
6
3
1
8
-3

20
1
4
-3
24
-1

21
1
4
6
81
-3
-4

22
1
3
5
73
-1
4

44
44
-1
31

31
1
1
1
1
1
1
1

3
1
34
6
2
6
8
-3
42

95
-1
94
-1
94
-1
3
3
3
-2

7
7
7
-3
-2
-1

10
23
1
10
20
4
3
-1
-1
-2
-2
